[
	{
		"id" : 1,
		"month": "April",
		"day": "27",
		"penaltyType": "Seat Belt",
		"address": "Patia,Bhubaneswar",
		"vehicleNumber" : "OD02AB1779",
		"amount" : "Rs 500"
	},
	{
		"id" : 2,
		"month": "April",
		"day": "29",
		"penaltyType": "Helmet",
		"address": "Patia,Bhubaneswar",
		"vehicleNumber" : "OD02Z1779",
		"amount" : "Rs 100"
	},
	{
		"id" : 3,
		"month": "April",
		"day": "25",
		"penaltyType": "Seat Belt",
		"address": "Nayapalli,Bhubaneswar",
		"vehicleNumber" : "OD02Z1776",
		"amount" : "Rs 500"
	},
	{
		"id" : 4,
		"month": "April",
		"day": "30",
		"penaltyType": "Seat Belt",
		"address": "Patia,Bhubaneswar",
		"vehicleNumber" : "OD02AB1776",
		"amount" : "Rs 500"
	}
]